Suicide Rates Overview 1985-2016
…
suicides_no | numeric discrete | Takes a value from a finite set of numeric integer suicide counts |

suicides/100k pop | numeric continuous | Takes a value from an infinite set of ratios of suicides to 100k populations |

1.2 Tidying the Data

Taking a look at the data, some modifications are needed for the purpose of our operations on that data. For instance, certain columns arent necessary and can be deleted and more importantly, some attributes datatypes need to be changed to other datatypes that are more suitable to the computations theyll be involved in.

Ill first start by removing the unnecessary columns. Ill be removing the country-year attribute because that is simply a concatenation of the first two attributes and thus isnt necessary. Ill also be removing the HDI for year attribute because theres just not much data on it. Lastly, Ill remove the generation attribute because it is simply an encoding of the age attribute, and thus we only need one of the two.

drops <- c("country-year", "HDI for year", "generation") # attributes to be dropped
suicide_data[drops] <- NULL # dropping the collection of attributes from suicide_data data frame
suicide_data

# A tibble: 27,820 x 9
   country  year sex   age   suicides_no population `suicides/100k 
   <chr>   <dbl> <chr> <chr>       <dbl>      <dbl>            <dbl>
 1 Albania  1987 male  15-2          21     312900             6.71
 2 Albania  1987 male  35-5          16     308000             5.19
 3 Albania  1987 fema 15-2          14     289700             4.83
 4 Albania  1987 male  75+            1      21800             4.59
 5 Albania  1987 male  25-3           9     274300             3.28
 6 Albania  1987 fema 75+            1      35600             2.81
 7 Albania  1987 fema 35-5           6     278800             2.15
 8 Albania  1987 fema 25-3           4     257200             1.56
 9 Albania  1987 male  55-7           1     137500             0.73
10 Albania  1987 fema 5-14           0     311000             0   
#  with 27,810 more rows, and 2 more variables: `gdp_for_year ($)` <dbl>,
#   `gdp_per_capita ($)` <dbl>

Now that Ive removed the unnecesssary columns, its time to modify certain datatypes to our advantage. First, Ill change the year, suicides_no, population, and gdp_per_capita ($) attributes to integer columns instead of doubles. Although, the attribute gdp_for_year ($) is not a fractional number, I will leave it as a double because some of its entries are far too large to be represented as integer values in R.

Note: Here, I make use of the magrittr package. This package allows me to use the %<>% operation which is similar to the %>% dplyr operation, except that this one reassigns the data frame to whatever is resulted of the pipeline operations. So in this case, suicide_data is being modified once the columns have been mutated from doubles to integers.s

library(magrittr)
int_cols <- c('year', 'suicides_no', 'population', 'gdp_per_capita ($)') # attributes to convert to integers

suicide_data[int_cols] %<>%
  mutate_all(as.integer) # modifying all the selected columns in int_cols from double datatype to integer

suicide_data

## # A tibble: 27,820 x 9
##    country  year sex   age   suicides_no population `suicides/100k 
##    <chr>   <int> <chr> <chr>       <int>      <int>            <dbl>
##  1 Albania  1987 male  15-2          21     312900             6.71
##  2 Albania  1987 male  35-5          16     308000             5.19
##  3 Albania  1987 fema 15-2          14     289700             4.83
##  4 Albania  1987 male  75+            1      21800             4.59
##  5 Albania  1987 male  25-3           9     274300             3.28
##  6 Albania  1987 fema 75+            1      35600             2.81
##  7 Albania  1987 fema 35-5           6     278800             2.15
##  8 Albania  1987 fema 25-3           4     257200             1.56
##  9 Albania  1987 male  55-7           1     137500             0.73
## 10 Albania  1987 fema 5-14           0     311000             0   
## #  with 27,810 more rows, and 2 more variables: `gdp_for_year ($)` <dbl>,
## #   `gdp_per_capita ($)` <int>
…
